<svg xmlns="http://www.w3.org/2000/svg" width="246.321" height="54.199" viewBox="0 0 246.321 54.199">
  <g id="Cebu_Pacific-Logo.wine" transform="translate(0)" opacity="0.7">
    <g id="Group_57" data-name="Group 57" transform="translate(0)">
      <path id="Path_70" data-name="Path 70" d="M159.52,3.4a11.224,11.224,0,0,1,.821-3.4,25.946,25.946,0,0,0,6.339,5.735,30.142,30.142,0,0,0,11.851,4.326,38.211,38.211,0,0,0,8.813.3c.637-.055,1.273-.123,1.9-.227a30.8,30.8,0,0,1-6.8,2.591,32.072,32.072,0,0,1-13.264.444,23.442,23.442,0,0,1-3.169-.769,12.029,12.029,0,0,1-3.463-1.777,7.625,7.625,0,0,1-2.409-3A8.434,8.434,0,0,1,159.52,3.4Z" transform="translate(-150.1)" fill="#e8e8e9"/>
      <path id="Path_71" data-name="Path 71" d="M.124,187.9a13.568,13.568,0,0,1,0-3.643,40.247,40.247,0,0,0,5.826,3.294,33.338,33.338,0,0,0,8.078,2.429,50.467,50.467,0,0,0,14.737.11,91.3,91.3,0,0,0,15.358-3.44,62.707,62.707,0,0,1-5.443,3.6,62.7,62.7,0,0,1-13.634,6.13A37.894,37.894,0,0,1,14.2,198.1a24.707,24.707,0,0,1-7.779-1.2,8.692,8.692,0,0,1-3.434-2.26,10.518,10.518,0,0,1-2.325-4.2,14.638,14.638,0,0,1-.54-2.531Zm34.792,8.056a55.525,55.525,0,0,0,5.046-3.435,47.44,47.44,0,0,1-8.778,10.054,29.069,29.069,0,0,1-5.736,3.791,17.586,17.586,0,0,1-4.016,1.444,12.457,12.457,0,0,1-4.055.155,8.657,8.657,0,0,1-3.1-.936,6.636,6.636,0,0,1-2.291-2A8.545,8.545,0,0,1,10.58,201.2a17.123,17.123,0,0,0,5.8.956,24.741,24.741,0,0,0,5.8-.715,38.013,38.013,0,0,0,6.6-2.267,54.809,54.809,0,0,0,6.135-3.218Z" transform="translate(0 -173.428)" fill="#e8e8e9"/>
    </g>
    <path id="Path_72" data-name="Path 72" d="M433.508,93.214a33.5,33.5,0,0,1,6.767-.03,13.228,13.228,0,0,1,3.878.956,4.743,4.743,0,0,1,1.564,1.083,2.7,2.7,0,0,1,.737,1.621,4.216,4.216,0,0,1-.258,1.748,6.316,6.316,0,0,0-2.8-1.391,12.254,12.254,0,0,0-2.424-.323,4.72,4.72,0,0,1-4.041,1.752,3.6,3.6,0,0,1-2.165-1.038c-.165-.158-.322-.326-.479-.492a4.518,4.518,0,0,0,4.119-.4,48.078,48.078,0,0,0-6.3-.416,72.775,72.775,0,0,0-9.226.557c-.992.114-1.978.274-2.966.413a33.411,33.411,0,0,1,6.322-2.567A38.2,38.2,0,0,1,433.508,93.214Zm.738,9.237a29.641,29.641,0,0,1,13.141-2.27,15.291,15.291,0,0,1,4.579,1.022,4.192,4.192,0,0,1,1.917,1.436,2.763,2.763,0,0,1,.4,1.858,5.772,5.772,0,0,1-1.2,2.712,2.626,2.626,0,0,0-.778-1.525,3.289,3.289,0,0,0-1.979-.76,11.354,11.354,0,0,0-3.527.364,32.636,32.636,0,0,0-4.061,1.3,60.174,60.174,0,0,0-6.663,3.1q-4.894,3.137-9.582,6.581c-2.255,1.665-4.462,3.4-6.585,5.229-1.437,1.242-2.829,2.537-4.144,3.908a21.97,21.97,0,0,0-2.679,3.287,44.593,44.593,0,0,1,2.3-6.191,12.534,12.534,0,0,1,2.2-3.409,42.827,42.827,0,0,0-4.209,3.578c-.555.564-1.133,1.1-1.677,1.68a88.776,88.776,0,0,0-7.03,8.312c-.693.915-1.363,1.847-2.018,2.79.641-1.819,1.317-3.63,2.124-5.383a44.3,44.3,0,0,1,7.261-10.855c1.026-1.165,2.1-2.285,3.212-3.37q2.131-2.108,4.419-4.048c1.751-1.492,3.534-2.951,5.409-4.285A44.668,44.668,0,0,1,434.246,102.451Z" transform="translate(-378.983 -87.558)" fill="#e8e8e9"/>
    <path id="Path_73" data-name="Path 73" d="M1251.173,320.171a8.03,8.03,0,0,1,4-1.162,12.467,12.467,0,0,1,3.96.426,6.071,6.071,0,0,1,1.674.74,1.747,1.747,0,0,1,.776,1.225,1.634,1.634,0,0,1-.192.926c-.445.633-.9,1.26-1.342,1.893a5.137,5.137,0,0,0-3.051-1.2,4.03,4.03,0,0,0-2.179.372,2.31,2.31,0,0,0-.853.737,3.777,3.777,0,0,0-.533,2.089c0,.634,0,1.269,0,1.9h6.48q0,1.951,0,3.9-3.24,0-6.479,0-.01,7.074,0,14.147h-5.158q0-9.8,0-19.6a8.874,8.874,0,0,1,.925-4.267A5.729,5.729,0,0,1,1251.173,320.171Zm-110.813-.752a9.973,9.973,0,0,1,2.293-.106,4.126,4.126,0,0,1,1.37.306,2.537,2.537,0,0,1,1.316,1.495,4.376,4.376,0,0,1,.168,1.4q0,3.428,0,6.857a6.744,6.744,0,0,1,1.658-1.109,8.07,8.07,0,0,1,7.307.72,6.468,6.468,0,0,1,1.948,2.339,9.179,9.179,0,0,1,.939,2.952,19.41,19.41,0,0,1,.078,4.517,11.986,11.986,0,0,1-.677,3.063,8.618,8.618,0,0,1-1.413,2.523,6.228,6.228,0,0,1-2.882,1.927,8.265,8.265,0,0,1-4.242.211,5.794,5.794,0,0,1-3.169-1.843,1.765,1.765,0,0,1-.405,1.176,1.457,1.457,0,0,1-1.052.32h-3.242q0-9.74,0-19.48c.006-2.424-.011-4.848.009-7.272m6.451,12.136a1.969,1.969,0,0,0-1.178,1.123,3.072,3.072,0,0,0-.127,1.182q0,3.826,0,7.652a4.33,4.33,0,0,0,3.559,1.135,2.817,2.817,0,0,0,1.675-.754,3.989,3.989,0,0,0,.963-1.677,12.355,12.355,0,0,0,.43-3.942,6.971,6.971,0,0,0-.856-3.45,3.158,3.158,0,0,0-2.27-1.431A5.255,5.255,0,0,0,1146.81,331.556Zm95.087-12.142a2.786,2.786,0,0,1,2.845,1.595,2.9,2.9,0,0,1-.279,2.791,2.863,2.863,0,0,1-1.29.938,2.927,2.927,0,0,1-2.923-.583,2.533,2.533,0,0,1-.772-1.461,2.9,2.9,0,0,1,.417-2.11A2.688,2.688,0,0,1,1241.9,319.414Zm23.519.009a2.816,2.816,0,0,1,2.613,1.051,2.677,2.677,0,0,1,.544,1.687,2.623,2.623,0,0,1-.6,1.752,2.882,2.882,0,0,1-2.825.916,2.615,2.615,0,0,1-2.063-2.133,2.95,2.95,0,0,1,.356-2.025A2.7,2.7,0,0,1,1265.416,319.424Zm-152.91,8.466a11.092,11.092,0,0,1,4.55.119,7.049,7.049,0,0,1,3,1.412,1.77,1.77,0,0,1,.623,1.02,2.964,2.964,0,0,1-.32,1.712,6.333,6.333,0,0,1-.858,1.391,6.694,6.694,0,0,0-1.32-1.02,5.886,5.886,0,0,0-1.527-.7,6.272,6.272,0,0,0-2.632-.131,3.649,3.649,0,0,0-2.4,1.346,6.339,6.339,0,0,0-1.119,3.408,10.476,10.476,0,0,0,.291,3.229,4.371,4.371,0,0,0,1.707,2.529,3.99,3.99,0,0,0,1.824.657,6.235,6.235,0,0,0,1.941-.069,5.613,5.613,0,0,0,3.011-1.7,6.312,6.312,0,0,1,.887,1.4,3.371,3.371,0,0,1,.4,1.428,1.651,1.651,0,0,1-.413,1.118,4.935,4.935,0,0,1-1.668,1.04,8.942,8.942,0,0,1-3.155.711,12.623,12.623,0,0,1-4.169-.418,7.79,7.79,0,0,1-2.888-1.507,8.242,8.242,0,0,1-2.1-2.781,10.033,10.033,0,0,1-.87-3.591,13.928,13.928,0,0,1,.333-4.568,8.382,8.382,0,0,1,1.612-3.083,7.874,7.874,0,0,1,2.417-1.986A8.891,8.891,0,0,1,1112.506,327.889Zm14,.588a9.642,9.642,0,0,1,4.071-.764,8.21,8.21,0,0,1,3.728.855,6.328,6.328,0,0,1,2.546,2.335,9.63,9.63,0,0,1,1.229,5.253,17.9,17.9,0,0,1-.116,1.929h-11.183a5.883,5.883,0,0,0,1.435,3.628,4.033,4.033,0,0,0,2.493,1.166,7.308,7.308,0,0,0,2.316-.062,6.329,6.329,0,0,0,2.524-1.185c.295-.235.572-.49.856-.737a11.274,11.274,0,0,1,.938,1.443,4.078,4.078,0,0,1,.491,1.277,1.616,1.616,0,0,1-.551,1.4,6.267,6.267,0,0,1-2.5,1.322,12.858,12.858,0,0,1-4.486.446,11.247,11.247,0,0,1-4.1-.992,7.653,7.653,0,0,1-2.492-1.978,9.153,9.153,0,0,1-1.416-2.516,12.4,12.4,0,0,1-.66-3.963,11.065,11.065,0,0,1,.625-4.292,8.759,8.759,0,0,1,1.708-2.762,7.851,7.851,0,0,1,2.546-1.8m2.46,2.874a3.087,3.087,0,0,0-1.5,1.148,4.818,4.818,0,0,0-.729,2.752h6.674a6.431,6.431,0,0,0-.45-2.453,3.036,3.036,0,0,0-.573-.9,2.661,2.661,0,0,0-1.49-.688A4.136,4.136,0,0,0,1128.968,331.351Zm64.591-3.38a8.1,8.1,0,0,1,3.647-.11,6.086,6.086,0,0,1,3.085,1.57,7.609,7.609,0,0,1,1.882,3.173,13.242,13.242,0,0,1,.554,3.728,18,18,0,0,1-.389,4.37,10.223,10.223,0,0,1-1.178,2.879,6.555,6.555,0,0,1-2.661,2.456,8.02,8.02,0,0,1-3.646.695,6.826,6.826,0,0,1-3.133-.921,3.76,3.76,0,0,1-1.014-.885c.014,3.171,0,6.341.007,9.513q-2.579,0-5.159,0,0-13.1,0-26.2a8.112,8.112,0,0,1,2.837-.054,2.9,2.9,0,0,1,1.681.821,2.185,2.185,0,0,1,.446.883,9.076,9.076,0,0,1,.876-.776,6.819,6.819,0,0,1,2.167-1.14m-1.533,3.818a1.926,1.926,0,0,0-1.164,1.145,2.83,2.83,0,0,0-.112,1.044c0,2.524,0,5.049,0,7.573a4.853,4.853,0,0,0,1.956,1.033,3.794,3.794,0,0,0,2.77-.4,3.507,3.507,0,0,0,1.283-1.667,10.226,10.226,0,0,0,.575-4.066,7.19,7.19,0,0,0-.809-3.374,3.083,3.083,0,0,0-2.295-1.46A5.143,5.143,0,0,0,1192.026,331.789Zm17.781-3.835a16.161,16.161,0,0,1,4.847-.122,6.579,6.579,0,0,1,3.6,1.447,5.046,5.046,0,0,1,1.531,2.76,20.871,20.871,0,0,1,.269,4.584c0,1.882-.012,3.765.009,5.648a8.047,8.047,0,0,0,.865,3.869,7.355,7.355,0,0,1-1.91.456,4.47,4.47,0,0,1-2.395-.342,2.339,2.339,0,0,1-1.153-1.676,7.305,7.305,0,0,1-4.931,2.062,6.849,6.849,0,0,1-4.139-.928,4.826,4.826,0,0,1-1.77-2.051,5.858,5.858,0,0,1-.491-2.332,5.262,5.262,0,0,1,.808-3.2,6.561,6.561,0,0,1,2.263-1.966,10.775,10.775,0,0,1,3.577-1.122,26.708,26.708,0,0,1,4.34-.327,5.683,5.683,0,0,0-.169-1.855,1.863,1.863,0,0,0-.911-1.095,4.565,4.565,0,0,0-1.968-.414,7.769,7.769,0,0,0-3.922.874c-.589.25-1.142.573-1.713.859a5.934,5.934,0,0,1-1.005-1.809,1.53,1.53,0,0,1-.071-1.185,2.785,2.785,0,0,1,1.209-1.081,11.226,11.226,0,0,1,3.229-1.055m3.513,9.54a8.067,8.067,0,0,0-2.51.583,2.827,2.827,0,0,0-1.335,4.265,1.954,1.954,0,0,0,1.318.827,4.835,4.835,0,0,0,3.193-.518,2.869,2.869,0,0,0,1.018-.865,1.045,1.045,0,0,0,.2-.64c0-1.257,0-2.515,0-3.772A14.189,14.189,0,0,0,1213.32,337.495Zm17.161-9.7a11.251,11.251,0,0,1,4.062.232,6.79,6.79,0,0,1,3.027,1.5,1.781,1.781,0,0,1,.482,1.738,5.818,5.818,0,0,1-1.156,2.27,6.246,6.246,0,0,0-.964-.786,6.51,6.51,0,0,0-1.885-.929,6.264,6.264,0,0,0-2.632-.13,3.776,3.776,0,0,0-2.216,1.115,5.836,5.836,0,0,0-1.253,3.053,10.919,10.919,0,0,0,.028,2.76,5.629,5.629,0,0,0,.989,2.693,3.856,3.856,0,0,0,2.632,1.531,5.715,5.715,0,0,0,5.071-1.755,6.31,6.31,0,0,1,.907,1.434,3.357,3.357,0,0,1,.381,1.387,1.644,1.644,0,0,1-.5,1.209,5.838,5.838,0,0,1-1.864,1.066,8.989,8.989,0,0,1-2.986.6,12.569,12.569,0,0,1-4.5-.556,8.023,8.023,0,0,1-2.781-1.677,8.64,8.64,0,0,1-1.814-2.6,10.153,10.153,0,0,1-.811-3.453,13.865,13.865,0,0,1,.343-4.625,8.372,8.372,0,0,1,1.626-3.071,7.86,7.86,0,0,1,2.393-1.957A9.59,9.59,0,0,1,1230.482,327.8Zm47.5.173a11.093,11.093,0,0,1,4.234-.108,8,8,0,0,1,3.4,1.309,2.282,2.282,0,0,1,.835.926,2.2,2.2,0,0,1-.037,1.612,6.222,6.222,0,0,1-1.033,1.834,7.668,7.668,0,0,0-1.714-1.247,5.775,5.775,0,0,0-3.622-.62,3.783,3.783,0,0,0-2.382,1.161,5.8,5.8,0,0,0-1.235,3.048,10.921,10.921,0,0,0,.052,2.9,5.374,5.374,0,0,0,1.025,2.611,3.852,3.852,0,0,0,2.547,1.45,5.719,5.719,0,0,0,5.1-1.753,6.609,6.609,0,0,1,1,1.652,2.463,2.463,0,0,1,.208,1.664,1.579,1.579,0,0,1-.573.848,6.7,6.7,0,0,1-1.844.979,9.986,9.986,0,0,1-3.609.577,12.212,12.212,0,0,1-2.364-.228,7.937,7.937,0,0,1-3.313-1.34,7.333,7.333,0,0,1-2.219-2.426,8.869,8.869,0,0,1-1.179-3.485,16.268,16.268,0,0,1-.03-4.009,8.424,8.424,0,0,1,1.21-3.537,7.863,7.863,0,0,1,2.343-2.473,8.312,8.312,0,0,1,3.2-1.344Zm-117.866.229c.473-.01.939-.1,1.413-.109a4.93,4.93,0,0,1,2.544.52,1.943,1.943,0,0,1,.865.847,3.35,3.35,0,0,1,.329,1.523c.012,2.685-.01,5.37.011,8.054a6.463,6.463,0,0,0,.277,2.083,1.718,1.718,0,0,0,.641.837,2.692,2.692,0,0,0,1.445.415,4.835,4.835,0,0,0,2.96-.725,1.627,1.627,0,0,0,.774-1.313q0-6.065,0-12.132a7.6,7.6,0,0,1,3.4.168,2.6,2.6,0,0,1,1.516,1.434,3.769,3.769,0,0,1,.244,1.535q0,7.418,0,14.836-1.683,0-3.366,0a1.86,1.86,0,0,1-1.026-.231,1.022,1.022,0,0,1-.37-.62,4.519,4.519,0,0,1-.126-1.161,6.018,6.018,0,0,1-1.755,1.471,5.873,5.873,0,0,1-2.326.785,11.725,11.725,0,0,1-2.92.007,5.18,5.18,0,0,1-2.442-.885,4.792,4.792,0,0,1-1.73-2.676,16.74,16.74,0,0,1-.349-3.65C1160.1,335.541,1160.114,331.869,1160.112,328.2Zm79.667.023a9.737,9.737,0,0,1,2.168-.119,3.8,3.8,0,0,1,1.807.484A2.371,2.371,0,0,1,1244.8,330a5.055,5.055,0,0,1,.133,1.388c-.006,5.008.01,10.015-.008,15.023a10.068,10.068,0,0,1-2.456.108,3.6,3.6,0,0,1-1.458-.387,2.436,2.436,0,0,1-1.116-1.58,5.75,5.75,0,0,1-.123-1.4Q1239.779,335.688,1239.779,328.221Zm23.605,0a9.943,9.943,0,0,1,2.2-.115,4.016,4.016,0,0,1,1.645.4,2.415,2.415,0,0,1,1.192,1.526,5.921,5.921,0,0,1,.123,1.538q0,7.418,0,14.835a7.685,7.685,0,0,1-1.667.145,5.558,5.558,0,0,1-2-.287,2.25,2.25,0,0,1-1.164-1.134,4.2,4.2,0,0,1-.326-1.862Q1263.384,335.743,1263.384,328.219Z" transform="translate(-1040.265 -300.239)" fill="#e8e8e9"/>
  </g>
</svg>
