<svg xmlns="http://www.w3.org/2000/svg" width="848.606" height="802.025" viewBox="0 0 848.606 802.025">
  <g id="Group_110" data-name="Group 110" transform="translate(-804.925 0.038)">
    <path id="Path_25" data-name="Path 25" d="M0,0,528.691,41.317l44.458,111.415L45.658,113.008Z" transform="translate(804.925 630.381) rotate(-68)" fill="#DFD3C3"/>
    <path id="Path_26" data-name="Path 26" d="M0,0,751.653,59.119l44.458,111.415L45.658,113.008Z" transform="translate(904.954 738.104) rotate(-68)" fill="#DFD3C3"/>
    <path id="Path_27" data-name="Path 27" d="M0,0,528.691,41.317l44.458,111.415L45.658,113.008Z" transform="translate(1105.012 630.381) rotate(-68)" fill="#DFD3C3"/>
    <path id="Path_28" data-name="Path 28" d="M0,0,447.188,24.453l44.458,111.415L45.658,113.008Z" transform="translate(1218.18 715.021) rotate(-68)" fill="#DFD3C3"/>
    <path id="Path_29" data-name="Path 29" d="M0,176.1,183.584,0,225.16,104.281,45.658,289.11Z" transform="translate(1301.127 564.412) rotate(-68)" fill="#DFD3C3"/>
  </g>
</svg>
